Macroeconomic Expectations — get_expectativas • databcrd
…
    Arguments

    modalidad
string with the desired disaggregation. options:
"eem", "eoe", "ecc",

    Value

a tibble

    Examples

get_expectativas("eem")
#> # A tibble: 7,875 × 9
#>    fecha       year   mes medida   short_names   variable_key variable horizonte
#>    <date>     <dbl> <dbl> <chr>    <chr>         <chr>        <fct>    <fct>    
#>  1 2009-06-01  2009     6 Promedio inf_anio_act… inf          Inflaci… Año actu…
#>  2 2009-06-01  2009     6 Promedio inf_12m       inf          Inflaci… 12 meses 
#>  3 2009-06-01  2009     6 Promedio inf_anio_sig… inf          Inflaci… Año sigu…
#>  4 2009-06-01  2009     6 Promedio inf_24m       inf          Inflaci… 24 meses 
#>  5 2009-06-01  2009     6 Promedio tc_anio_actu… tc           Variaci… Año actu…
#>  6 2009-06-01  2009     6 Promedio tc_12m        tc           Variaci… 12 meses 
#>  7 2009-06-01  2009     6 Promedio tc_anio_sigu… tc           Variaci… Año sigu…
#>  8 2009-06-01  2009     6 Promedio tc_24m        tc           Variaci… 24 meses 
#>  9 2009-06-01  2009     6 Promedio pib_trim_act… pib          Crecimi… Trimestr…
#> 10 2009-06-01  2009     6 Promedio pib_anio_act… pib          Crecimi… Año actu…
#> # ℹ 7,865 more rows
#> # ℹ 1 more variable: expectativa <dbl>
get_expectativas("eoe")
#> # A tibble: 2,299 × 5
#>     year mes   descripcion                      valor fecha     
#>    <dbl> <chr> <chr>                            <dbl> <date>    
#>  1  2006 Julio situacion_economica              36.5  2006-07-01
#>  2  2006 Julio nivel_de_inventario               3.85 2006-07-01
#>  3  2006 Julio produccion                        5.77 2006-07-01
#>  4  2006 Julio pedidos                         -13.5  2006-07-01
#>  5  2006 Julio empleo                           NA    2006-07-01
#>  6  2006 Julio expectativa_produccion           44.2  2006-07-01
#>  7  2006 Julio expectativa_precios               9.62 2006-07-01
#>  8  2006 Julio expectativa_situacion_economica  44.2  2006-07-01
#>  9  2006 Julio expectativa_empleo               NA    2006-07-01
#> 10  2006 Julio indice_de_confianza_industrial   54.5  2006-07-01
#> # ℹ 2,289 more rows
get_expectativas("ecc")
#> # A tibble: 1,804 × 9
#>    descripcion   original_names labels short_names categoria nivel direct_parent
#>    <chr>         <chr>          <chr>  <chr>       <chr>     <dbl> <chr>        
#>  1 Evolución de… Evolución de … Evolu… evolucion_… situacio…     2 situacion_ac…
#>  2 Evolución de… Evolución de … Evolu… evolucion_… situacio…     2 situacion_ac…
#>  3 Evolución de… Evolución de … Evolu… evolucion_… situacio…     2 situacion_ac…
#>  4 Evolución de… Evolución de … Evolu… evolucion_… situacio…     2 situacion_ac…
#>  5 Evolución de… Evolución de … Evolu… evolucion_… situacio…     2 situacion_ac…
#>  6 Evolución de… Evolución de … Evolu… evolucion_… situacio…     2 situacion_ac…
#>  7 Evolución de… Evolución de … Evolu… evolucion_… situacio…     2 situacion_ac…
#>  8 Evolución de… Evolución de … Evolu… evolucion_… situacio…     2 situacion_ac…
#>  9 Evolución de… Evolución de … Evolu… evolucion_… situacio…     2 situacion_ac…
#> 10 Evolución de… Evolución de … Evolu… evolucion_… situacio…     2 situacion_ac…
#> # ℹ 1,794 more rows
#> # ℹ 2 more variables: fecha <date>, valor <dbl>
…
