Dominican Inflation Data • databcrd
…
General Inflation

With get_ipc_data("general"), the updated general
inflation data is downloaded, including the index (ipc),
monthly variation (ipc_vm), year-over-year variation
(ipc_vi), variation since December (ipc_vd),
and the 12-month average variation (ipc_p12).

inflacion_general <- get_ipc_data("general")
inflacion_general
#> # A tibble: 494 × 8
#>    fecha      year    mes   ipc ipc_vm ipc_vd ipc_vi ipc_p12
#>    <date>     <chr> <dbl> <dbl>  <dbl>  <dbl>  <dbl>   <dbl>
#>  1 1984-01-01 1984      1  1.38  1.74    1.74   7.05    5.57
#>  2 1984-02-01 1984      2  1.42  2.81    4.60  11.2     6.01
#>  3 1984-03-01 1984      3  1.44  1.23    5.89  11.9     6.52
#>  4 1984-04-01 1984      4  1.46  1.57    7.55  14.9     7.36
#>  5 1984-05-01 1984      5  1.48  1.20    8.84  15.2     8.26
#>  6 1984-06-01 1984      6  1.54  4.31   13.5   19.6     9.49
#>  7 1984-07-01 1984      7  1.56  1.29   15.0   20.7    10.8 
#>  8 1984-08-01 1984      8  1.57  0.455  15.5   20.1    12.0 
#>  9 1984-09-01 1984      9  1.64  4.69   20.9   24.8    13.7 
#> 10 1984-10-01 1984     10  1.68  2.34   23.8   26.3    15.4 
#> # ℹ 484 more rows
…
